{
    "$schema": "http://schema.management.azure.com/schemas/2015-01-01/deploymentTemplate.json#",
    "contentVersion": "1.0.0.0",
    "parameters": {  
      "SA_Name" : {
        "defaultValue": "egstorageaccount2018",
        "type" : "string"
      },
      "SA_Type" : {
        "defaultValue": "Standard_LRS",
        "type" : "string"
      },
      "SA_Kind" : {
        "defaultValue": "Storage",
        "type": "string"
      },
      "Vnet_Name" : {
        "defaultValue": "TestVnet1",
        "type": "string"
      },
      "Vnet_prefix" : {
        "defaultValue": "10.11.0.0/16",
        "type": "string"
      },
      "Vnet_Subnet1_Name" : {
        "defaultValue": "FrontEnd",
        "type": "string"
      },
      "Vnet_Subnet1_prefix" : {
        "defaultValue": "10.11.0.0/24",
        "type": "string"
      },
      "Vnet_Subnet2_Name" : {
        "defaultValue": "Backend",
        "type": "string"
      },
      "Vnet_Subnet2_prefix" : {
        "defaultValue": "10.11.1.0/24",
        "type": "string"
      }
    },
    "resources": [
      {
        "apiVersion": "2017-05-10",
        "name": "StorageAccount_template",
        "type": "Microsoft.Resources/deployments",
        "properties": {
            "mode": "Incremental",
            "templateLink": {
              "uri":"https://bitbucket.org/gvrsv/azuretask/raw/master/Module3/StorageAccount_template.json",
              "contentVersion":"1.0.0.0"
            },
            "parameters": {
                "StorageAccountName":{"value": "[parameters('SA_Name')]"},
                "StorageAccountType":{"value": "[parameters('SA_Type')]"},
                "StorageAccountKind":{"value": "[parameters('SA_Kind')]"}
            }
        }
      },
      {
        "apiVersion": "2017-05-10",
        "name": "Vnet_template",
        "type": "Microsoft.Resources/deployments",
        "properties": {
            "mode": "Incremental",
            "templateLink": {
              "uri":"https://bitbucket.org/gvrsv/azuretask/raw/master/Module3/Vnet_template.json",
              "contentVersion":"1.0.0.0"
            },
            "parameters": {
                "VnetName"  :{"value": "[parameters('Vnet_Name')]"},
                "VnetPrefix":{"value": "[parameters('Vnet_prefix')]"},
                "Subnet1Name":{"value": "[parameters('Vnet_Subnet1_Name')]"},
                "Subnet1Prefix":{"value": "[parameters('Vnet_Subnet1_prefix')]"},
                "Subnet2Name":{"value": "[parameters('Vnet_Subnet2_Name')]"},
                "Subnet2Prefix":{"value": "[parameters('Vnet_Subnet2_prefix')]"}
            }
        }
      }
    ]
  }