{
    "$schema": "http://schema.management.azure.com/schemas/2015-01-01/deploymentTemplate.json#",
    "contentVersion": "1.0.0.0",
    "parameters": {
        "VnetName": {
            "type" : "string"
        },
        "VnetPrefix": {
            "type" : "string"
        },
        "Subnet1Name": {
            "type" : "string"
        },
        "Subnet1Prefix": {
            "type" : "string"
        },
        "Subnet2Name": {
            "type" : "string"
        },
        "Subnet2Prefix": {
            "type" : "string"
        }
    },
    "resources": [
        {
            "name": "[parameters('VnetName')]",
            "type": "Microsoft.Network/virtualNetworks",
            "apiVersion": "2017-10-01",
            "location": "[resourceGroup().location]",
            "properties": {
                "addressSpace": {
                    "addressPrefixes": [
                        "[parameters('VnetPrefix')]"
                    ]
                },
                "subnets": [
                    {
                      "name": "[parameters('Subnet1Name')]",
                      "properties": {
                        "addressPrefix": "[parameters('Subnet1Prefix')]"
                      }
                    },
                    {
                      "name": "[parameters('Subnet2Name')]",
                      "properties": {
                        "addressPrefix": "[parameters('Subnet2Prefix')]"
                      }
                    }
                  ]
            }
          }
      ]
}
